{
  "path": "ChatiX/discord/siyozna.png",
  "name": "discord_siyozna",
  "id": 5,
  "permission": "chatix.discord.discord_siyozna:5",
  "offsetX": 4,
  "usage": [
    ":discord_siyozna:",
    ":5:",
    "\u003cdiscord_siyozna:5\u003e",
    ":siyozna:",
    ":s:"
  ]
}