{
  "path": "ChatiX/discord/jerry.png",
  "name": "discord_jerry",
  "id": 1,
  "permission": "chatix.discord.discord_jerry:1",
  "usage": [
    ":discord_jerry:",
    ":1:",
    "\u003cdiscord_jerry:1\u003e"
  ]
}